{
    "KPlugin": {
        "Authors": [
            {
                "Name": "Daniel Vrátil",
                "Name[ar]": "Daniel Vrátil",
                "Name[az]": "Daniel Vrátil",
                "Name[ca@valencia]": "Daniel Vrátil",
                "Name[ca]": "Daniel Vrátil",
                "Name[cs]": "Daniel Vrátil",
                "Name[da]": "Daniel Vrátil",
                "Name[de]": "Daniel Vrátil",
                "Name[el]": "Daniel Vrátil",
                "Name[en_GB]": "Daniel Vrátil",
                "Name[es]": "Daniel Vrátil",
                "Name[et]": "Daniel Vrátil",
                "Name[eu]": "Daniel Vrátil",
                "Name[fi]": "Daniel Vrátil",
                "Name[fr]": "Daniel Vrátil",
                "Name[gl]": "Daniel Vrátil",
                "Name[hu]": "Daniel Vrátil",
                "Name[ia]": "Daniel Vrátil",
                "Name[id]": "Daniel Vrátil",
                "Name[it]": "Daniel Vrátil",
                "Name[ko]": "Daniel Vrátil",
                "Name[lt]": "Daniel Vrátil",
                "Name[nl]": "Daniel Vrátil",
                "Name[nn]": "Daniel Vrátil",
                "Name[pl]": "Daniel Vrátil",
                "Name[pt]": "Daniel Vrátil",
                "Name[pt_BR]": "Daniel Vrátil",
                "Name[ru]": "Daniel Vrátil",
                "Name[sk]": "Daniel Vrátil",
                "Name[sl]": "Daniel Vrátil",
                "Name[sv]": "Daniel Vrátil",
                "Name[tg]": "Даниел Вратил (Daniel Vrátil)",
                "Name[tr]": "Daniel Vrátil",
                "Name[uk]": "Daniel Vrátil",
                "Name[x-test]": "xxDaniel Vrátilxx",
                "Name[zh_CN]": "Daniel Vrátil",
                "Name[zh_TW]": "Daniel Vrátil"
            }
        ],
        "Category": "Utilities",
        "Description": "Send via Email",
        "Description[ar]": "أرسِل عبر البريد الإلكتروني",
        "Description[az]": "E-poçt ilə göndərmək",
        "Description[ca@valencia]": "Envia per correu electrònic",
        "Description[ca]": "Envia per correu electrònic",
        "Description[cs]": "Poslat emailem",
        "Description[da]": "Send via e-mail",
        "Description[de]": "Als E-Mail senden",
        "Description[el]": "Αποστολή μέσω email",
        "Description[en_GB]": "Send via Email",
        "Description[es]": "Enviar por correo electrónico",
        "Description[et]": "Saatmine e-kirjaga",
        "Description[eu]": "Bidali e-posta bidez",
        "Description[fi]": "Lähetä sähköpostitse",
        "Description[fr]": "Envoyer par courriel",
        "Description[gl]": "Enviar por correo electrónico",
        "Description[hu]": "Küldés e-mailben",
        "Description[ia]": "Invia via Email",
        "Description[id]": "Kirimkan via Email",
        "Description[it]": "Invia per posta elettronica",
        "Description[ko]": "이메일로 보내기",
        "Description[lt]": "Siųsti el. paštu",
        "Description[ml]": "ഇമെയില്‍ വഴി അയക്കുക",
        "Description[nl]": "Verzenden via e-mail",
        "Description[nn]": "Send via e-post",
        "Description[pl]": "Prześlij pocztą",
        "Description[pt]": "Enviar por E-mail",
        "Description[pt_BR]": "Envia por e-mail",
        "Description[ru]": "Отправка по электронной почте",
        "Description[sk]": "Poslať cez Email",
        "Description[sl]": "Pošlji prek e-pošte",
        "Description[sv]": "Skicka med e-post",
        "Description[ta]": "மின்னஞ்சல் மூலம் அனுப்பு",
        "Description[tg]": "Фиристодан ба воситаи почтаи электронӣ",
        "Description[tr]": "Eposta olarak gönder",
        "Description[uk]": "Надсилання електронною поштою",
        "Description[x-test]": "xxSend via Emailxx",
        "Description[zh_CN]": "通过电子邮件发送",
        "Description[zh_TW]": "透過電子郵件傳送",
        "Icon": "mail-message",
        "License": "GPL",
        "Name": "Send via Email",
        "Name[ar]": "أرسِل عبر البريد الإلكتروني",
        "Name[az]": "E-poçt ilə göndərmək",
        "Name[ca]": "Envia per correu electrònic",
        "Name[cs]": "Poslat emailem",
        "Name[da]": "Send via e-mail",
        "Name[de]": "Als E-Mail senden",
        "Name[el]": "Αποστολή μέσω email",
        "Name[en_GB]": "Send via Email",
        "Name[es]": "Enviar por correo electrónico",
        "Name[et]": "Saatmine e-postiga",
        "Name[eu]": "Bidali e-posta bidez",
        "Name[fi]": "Lähetä sähköpostitse",
        "Name[fr]": "Envoyer par courriel",
        "Name[gl]": "Enviar por correo electrónico",
        "Name[hu]": "Küldés e-mailben",
        "Name[ia]": "Invia via Email",
        "Name[id]": "Kirimkan via Email",
        "Name[it]": "Invia per posta elettronica",
        "Name[ko]": "이메일로 보내기",
        "Name[lt]": "Siųsti el. paštu",
        "Name[ml]": "ഇമെയില്‍ വഴി അയക്കുക",
        "Name[nl]": "Verzenden via e-mail",
        "Name[nn]": "Send via e-post",
        "Name[pl]": "Prześlij pocztą",
        "Name[pt]": "Enviar por E-mail",
        "Name[pt_BR]": "Envia por e-mail",
        "Name[ru]": "Отправка по электронной почте",
        "Name[sk]": "Poslať cez Email",
        "Name[sl]": "Pošlji prek e-pošte",
        "Name[sv]": "Skicka med e-post",
        "Name[ta]": "மின்னஞ்சல் மூலம் அனுப்பு",
        "Name[tg]": "Фиристодан ба воситаи почтаи электронӣ",
        "Name[uk]": "Надсилання електронною поштою",
        "Name[x-test]": "xxSend via Emailxx",
        "Name[zh_CN]": "通过电子邮件发送",
        "Name[zh_TW]": "透過電子郵件傳送",
        "X-Purpose-ActionDisplay": "Send via Email...",
        "X-Purpose-ActionDisplay[ar]": "أرسِل عبر البريد الإلكتروني...",
        "X-Purpose-ActionDisplay[az]": "E-poçt ilə göndər...",
        "X-Purpose-ActionDisplay[ca]": "Envia per correu electrònic....",
        "X-Purpose-ActionDisplay[cs]": "Poslat emailem...",
        "X-Purpose-ActionDisplay[da]": "Send via e-mail...",
        "X-Purpose-ActionDisplay[de]": "Als E-Mail senden ...",
        "X-Purpose-ActionDisplay[el]": "Αποστολή μέσω email...",
        "X-Purpose-ActionDisplay[en_GB]": "Send via Email...",
        "X-Purpose-ActionDisplay[es]": "Enviar por correo electrónico...",
        "X-Purpose-ActionDisplay[et]": "Saada e-postiga ...",
        "X-Purpose-ActionDisplay[eu]": "Bidali e-posta bidez...",
        "X-Purpose-ActionDisplay[fi]": "Lähetä sähköpostitse…",
        "X-Purpose-ActionDisplay[fr]": "Envoyer par courriel...",
        "X-Purpose-ActionDisplay[gl]": "Enviar por correo electrónico…",
        "X-Purpose-ActionDisplay[hu]": "Küldés e-mailben…",
        "X-Purpose-ActionDisplay[ia]": "Invia via Email...",
        "X-Purpose-ActionDisplay[id]": "Kirimkan via Email...",
        "X-Purpose-ActionDisplay[it]": "Invia per posta elettronica...",
        "X-Purpose-ActionDisplay[ko]": "이메일로 보내기...",
        "X-Purpose-ActionDisplay[lt]": "Siųsti el. paštu...",
        "X-Purpose-ActionDisplay[ml]": "ഇമെയില്‍ വഴി അയക്കുക",
        "X-Purpose-ActionDisplay[nl]": "Verzenden via e-mail...",
        "X-Purpose-ActionDisplay[nn]": "Send via e-post …",
        "X-Purpose-ActionDisplay[pl]": "Prześlij pocztą...",
        "X-Purpose-ActionDisplay[pt]": "Enviar por E-mail...",
        "X-Purpose-ActionDisplay[pt_BR]": "Enviar por e-mail...",
        "X-Purpose-ActionDisplay[ru]": "Отправить по электронной почте...",
        "X-Purpose-ActionDisplay[sk]": "Poslať cez Email...",
        "X-Purpose-ActionDisplay[sl]": "Pošlji prek e-pošte...",
        "X-Purpose-ActionDisplay[sv]": "Skicka med e-post...",
        "X-Purpose-ActionDisplay[ta]": "மின்னஞ்சல் மூலம் அனுப்பு...",
        "X-Purpose-ActionDisplay[tg]": "Фиристодан ба воситаи почтаи электронӣ...",
        "X-Purpose-ActionDisplay[uk]": "Надіслати електронною поштою…",
        "X-Purpose-ActionDisplay[x-test]": "xxSend via Email...xx",
        "X-Purpose-ActionDisplay[zh_CN]": "通过电子邮件发送...",
        "X-Purpose-ActionDisplay[zh_TW]": "透過電子郵件傳送…"
    },
    "X-Purpose-Configuration": [],
    "X-Purpose-Constraints": [],
    "X-Purpose-PluginTypes": [
        "Export",
        "ShareUrl"
    ]
}
